{
  "name": "Cyndaquil",
  "nationalPokedexNumber": 155,
  "primaryType": "fire",
  "abilities": [
    "blaze",
    "h:flashfire"
  ],
  "baseStats": {
    "hp": 39,
    "attack": 52,
    "defence": 43,
    "special_attack": 60,
    "special_defence": 50,
    "speed": 65
  },
  "catchRate": 45,
  "maleRatio": 0.875,
  "shoulderMountable": false,
  "baseExperienceYield": 62,
  "experienceGroup": "medium_slow",
  "eggCycles": 20,
  "eggGroups": [
    "field"
  ],
  "moves": [
    "1:leer",
    "1:tackle",
    "6:smokescreen",
    "10:ember",
    "13:quickattack",
    "19:flamewheel",
    "22:defensecurl",
    "28:flamecharge",
    "31:swift",
    "37:lavaplume",
    "40:flamethrower",
    "46:inferno",
    "49:rollout",
    "55:doubleedge",
    "58:burnup",
    "58:overheat",
    "64:eruption",
    "egg:covet",
    "egg:crushclaw",
    "egg:curse",
    "egg:doubleedge",
    "egg:doublekick",
    "egg:extrasensory",
    "egg:flameburst",
    "egg:flareblitz",
    "egg:foresight",
    "egg:furyswipes",
    "egg:howl",
    "egg:naturepower",
    "egg:quickattack",
    "egg:reversal",
    "egg:thrash",
    "tm:aerialace",
    "tm:attract",
    "tm:bodyslam",
    "tm:captivate",
    "tm:confide",
    "tm:cut",
    "tm:dig",
    "tm:doubleteam",
    "tm:endure",
    "tm:facade",
    "tm:fireblast",
    "tm:firefang",
    "tm:firepledge",
    "tm:firespin",
    "tm:flamecharge",
    "tm:flamethrower",
    "tm:flareblitz",
    "tm:frustration",
    "tm:heatwave",
    "tm:hiddenpower",
    "tm:incinerate",
    "tm:ironhead",
    "tm:naturalgift",
    "tm:naturepower",
    "tm:overheat",
    "tm:playrough",
    "tm:protect",
    "tm:rest",
    "tm:return",
    "tm:reversal",
    "tm:round",
    "tm:secretpower",
    "tm:sleeptalk",
    "tm:substitute",
    "tm:sunnyday",
    "tm:swagger",
    "tm:swift",
    "tm:takedown",
    "tm:terablast",
    "tm:toxic",
    "tm:wildcharge",
    "tm:willowisp",
    "tm:workup",
    "tm:zenheadbutt",
    "tutor:attract",
    "tutor:blastburn",
    "tutor:bodyslam",
    "tutor:covet",
    "tutor:curse",
    "tutor:cut",
    "tutor:defensecurl",
    "tutor:detect",
    "tutor:dig",
    "tutor:doubleedge",
    "tutor:doubleteam",
    "tutor:ember",
    "tutor:endure",
    "tutor:fireblast",
    "tutor:firepledge",
    "tutor:flamethrower",
    "tutor:flamewheel",
    "tutor:foresight",
    "tutor:frustration",
    "tutor:furyswipes",
    "tutor:headbutt",
    "tutor:heatwave",
    "tutor:hiddenpower",
    "tutor:irontail",
    "tutor:leer",
    "tutor:mimic",
    "tutor:mudslap",
    "tutor:protect",
    "tutor:quickattack",
    "tutor:rest",
    "tutor:return",
    "tutor:reversal",
    "tutor:rollout",
    "tutor:sleeptalk",
    "tutor:smokescreen",
    "tutor:snore",
    "tutor:submission",
    "tutor:substitute",
    "tutor:sunnyday",
    "tutor:swagger",
    "tutor:swift",
    "tutor:tackle",
    "tutor:thrash",
    "tutor:toxic"
  ],
  "labels": [
    "gen2"
  ],
  "pokedex": [
    "cobblemon.species.cyndaquil.desc"
  ],
  "evolutions": [
    {
      "id": "cyndaquil_quilava",
      "variant": "level_up",
      "result": "quilava",
      "consumeHeldItem": false,
      "learnableMoves": [],
      "requirements": [
        {
          "variant": "level",
          "minLevel": 14
        }
      ]
    }
  ],
  "baseScale": 1,
  "hitbox": {
    "width": 1,
    "height": 1,
    "fixed": false
  },
  "baseFriendship": 70,
  "evYield": {
    "hp": 0,
    "attack": 0,
    "defence": 0,
    "special_attack": 0,
    "special_defence": 0,
    "speed": 1
  },
  "height": 5,
  "weight": 79,
  "aspects": [],
  "cannotDynamax": false
}