{
	"format_version": "1.8.0",
	"animations": {
		"animation.inteleon.ground_idle": {
			"loop": true,
			"animation_length": 2,
			"bones": {
				"torso": {
					"rotation": ["7.5+math.sin(q.anim_time*90*2-90)*1", 0, 0]
				},
				"waist": {
					"rotation": ["-7.5+math.sin(q.anim_time*90*2-135)*1", 0, 0]
				},
				"chest": {
					"rotation": ["-7.5+math.sin(q.anim_time*90*2-180)*1", 0, 0]
				},
				"arm_left": {
					"rotation": ["76.9912-math.sin(q.anim_time*90*2-180)*1", -14.90582, 21.64461]
				},
				"arm_left2": {
					"rotation": [24.13186, 84.72537, 14.27369]
				},
				"hand_left": {
					"rotation": [23.45341, 41.77745, -37.21837]
				},
				"finger1_left": {
					"rotation": [0, 0, 27.5]
				},
				"finger1_left2": {
					"rotation": [0, 0, 45]
				},
				"finger2_left": {
					"rotation": [-2.04831, 1.43364, -15.02563]
				},
				"finger2_left2": {
					"rotation": [0, 0, 65]
				},
				"thumb_left": {
					"rotation": [-5.34655, 77.4621, -17.09529]
				},
				"thumb_left2": {
					"rotation": [0, -25, 0]
				},
				"neck": {
					"rotation": ["2.5+math.sin(q.anim_time*90*2+110)*1", 0, 0]
				},
				"head": {
					"rotation": ["20+math.sin(q.anim_time*90*2+60)*1", 0, 0]
				},
				"foot_left": {
					"rotation": ["-math.sin(q.anim_time*90*2-135)*1", -15, 0]
				},
				"leg_right": {
					"rotation": ["-17.5-math.sin(q.anim_time*90*2-135)*2", 4.88119, -1.08482],
					"position": [0, "-0.18-math.sin(q.anim_time*90*2-135)*0.16", 0]
				},
				"leg_right2": {
					"rotation": ["32.5+math.sin(q.anim_time*90*2-135)*4", 0, 0]
				},
				"foot_right": {
					"rotation": ["12.5+math.sin(q.anim_time*90*2-135)*1", 0, 0]
				},
				"toes_right": {
					"rotation": ["-27.5-math.sin(q.anim_time*90*2-135)*4", 0, 0]
				},
				"arm_right": {
					"rotation": [-1.5741, "17.4313-math.sin(q.anim_time*90*2+90)*1", -70.24133]
				},
				"arm_right2": {
					"rotation": [8.13936, "-15-math.sin(q.anim_time*90*2)*1", -16.38468]
				},
				"hand_right": {
					"rotation": [0, "-5-math.sin(q.anim_time*90*2+40)*2", 2.5]
				},
				"fingers_right": {
					"rotation": [0, 0, 0]
				},
				"finger1_right": {
					"rotation": [0, 0, -7.5]
				},
				"finger1_right2": {
					"rotation": [0, 0, -15]
				},
				"finger2_right": {
					"rotation": [0, 0, -20]
				},
				"finger2_right2": {
					"rotation": [0, 0, -32.5]
				},
				"thumb_right": {
					"rotation": [-10.30798, -33.32262, -20.16889]
				},
				"thumb_right2": {
					"rotation": [0, 32.5, 0]
				},
				"tail": {
					"rotation": ["-10-math.sin(q.anim_time*90*2-90)*2", 0, 0]
				},
				"tail2": {
					"rotation": ["-20-math.sin(q.anim_time*90*2-225)*2", 4.21541, -2.69136]
				},
				"tail3": {
					"rotation": ["-10-math.sin(q.anim_time*90*2-270)*2", 0, 0]
				},
				"tail4": {
					"rotation": ["6.6105-math.sin(q.anim_time*90*2-315)*2", 1.97573, -2.8314]
				},
				"tail5": {
					"rotation": ["20-math.sin(q.anim_time*90*2-360)*4", 0, 0]
				},
				"tail6": {
					"rotation": ["55-math.sin(q.anim_time*90*2+405)*1", 0, 0]
				},
				"tail7": {
					"rotation": ["50-math.sin(q.anim_time*90*2-450)*4", 0, 0]
				},
				"tail8": {
					"rotation": ["35-math.sin(q.anim_time*90*2+495)*2", -6.49053, -3.76613]
				},
				"tail9": {
					"rotation": ["30.5987-math.sin(q.anim_time*90*2-540)*4", 10.80355, 6.32526]
				},
				"tail10": {
					"rotation": ["-20+math.sin(q.anim_time*90*2+585)*8", 12.45167, 1.10693]
				},
				"tail11": {
					"rotation": ["-15+math.sin(q.anim_time*90*2+630)*2", 0, 0]
				},
				"tail12": {
					"rotation": ["-52.5-math.sin(q.anim_time*90*2+675)*8", 0, 0]
				},
				"tail13": {
					"rotation": ["-67.5-math.sin(q.anim_time*90*2-720)*4", 0, 0]
				},
				"tail_fin": {
					"position": [0, -2, 0]
				},
				"tail_fin2": {
					"position": [0, -2, 0]
				},
				"tail_fin3": {
					"position": [0, -2, 0]
				},
				"tail_fin4": {
					"position": [0, -2, 0]
				},
				"tail_fin5": {
					"position": [0, -2, 0]
				},
				"tail_fin6": {
					"position": [0, -2, 0]
				},
				"tail_fin7": {
					"position": [0, -2, 0]
				},
				"tail_fin8": {
					"position": [0, -1, 0]
				},
				"tail_fin9": {
					"position": [0, -1, 0]
				},
				"cape_left": {
					"rotation": [2.5, 0, 0]
				},
				"cape_left2": {
					"rotation": ["2.5+math.sin(q.anim_time*90*2-135)*2", 0, 0]
				},
				"cape_left3": {
					"rotation": ["-4.9574+math.sin(q.anim_time*90*2-225)*3", -0.65182, -7.47178]
				},
				"cape_left4": {
					"rotation": ["-4.9811+math.sin(q.anim_time*90*2-270)*3", -0.43523, -4.98107]
				},
				"cape_right": {
					"rotation": [5, 0, 0]
				},
				"cape_right2": {
					"rotation": ["-2.5+math.sin(q.anim_time*90*2-135)*2", 0, 0]
				},
				"cape_right3": {
					"rotation": ["-4.9811+math.sin(q.anim_time*90*2-225)*3", 0.43523, 4.98107]
				},
				"cape_right4": {
					"rotation": ["-7.4718+math.sin(q.anim_time*90*2-270)*3", 0.65182, 4.95744]
				},
				"jaw": {
					"rotation": [0, 0, 0]
				},
				"cape": {
					"rotation": ["-math.sin(q.anim_time*90*2-180)*2", 0, 0]
				},
				"leg_left": {
					"rotation": ["-math.sin(q.anim_time*90*2-135)*1", 0, 0],
					"position": [0, "-math.sin(q.anim_time*90*2-135)*0.05", 0]
				},
				"leg_left2": {
					"rotation": ["math.sin(q.anim_time*90*2-135)*2", 0, 0]
				}
			}
		},
		"animation.inteleon.ground_walk": {
			"loop": true,
			"animation_length": 2,
			"bones": {
				"torso": {
					"rotation": ["12.5+math.sin(q.anim_time*90*8)*1", 0.5, 0],
					"position": [0, "-0.3+math.sin(q.anim_time*90*8)*0.3", 0]
				},
				"waist": {
					"rotation": ["7.5-math.sin(q.anim_time*90*8-45*0)*1", 0, 0]
				},
				"chest": {
					"rotation": ["12.5+math.sin(q.anim_time*90*8-50)*2", 0, 0],
					"position": [0, 0, -0.25]
				},
				"arms": {
					"rotation": ["-math.sin(q.anim_time*90*8-45*0)*1.5", 0, 0]
				},
				"arm_left": {
					"rotation": [102.60151, 57.91064, 109.52555]
				},
				"arm_left2": {
					"rotation": [210.93116, 80.98211, 259.20187]
				},
				"hand_left": {
					"rotation": [-26.66329, 10.03589, 54.20807],
					"position": [0, 0, 0]
				},
				"finger1_left": {
					"rotation": [0, 0, 45]
				},
				"finger1_left2": {
					"rotation": [0, 0, 100]
				},
				"finger2_left": {
					"rotation": [-0.61311, 0.22306, 27.48469]
				},
				"finger2_left2": {
					"rotation": [0, 0, 100],
					"position": [0, -0.2, 0]
				},
				"thumb_left": {
					"rotation": [76.15965, 5.68966, 71.74075]
				},
				"thumb_left2": {
					"rotation": [0, -65, 0]
				},
				"arm_right": {
					"rotation": [-7.5, -26.75635, -20]
				},
				"arm_right2": {
					"rotation": [-143.13124, -22.77078, 104.78959],
					"position": [0, 0, -1]
				},
				"hand_right": {
					"rotation": [0, -20, 0],
					"position": [0, 0, 0.2]
				},
				"finger1_right": {
					"rotation": [0, 0, -82.5]
				},
				"finger1_right2": {
					"rotation": [0, 0, -80]
				},
				"thumb_right": {
					"rotation": [0, -27.5, 0],
					"position": [0, 0, 0.2]
				},
				"thumb_right2": {
					"rotation": [0, 10, 0]
				},
				"cape_left2": {
					"rotation": ["math.sin(q.anim_time*90*8)*4", 0, 0]
				},
				"cape_left3": {
					"rotation": ["math.sin(q.anim_time*90*8-90)*4", 0, 0]
				},
				"cape_left4": {
					"rotation": ["math.sin(q.anim_time*90*8-90)*6", 0, 0]
				},
				"cape_right2": {
					"rotation": ["math.sin(q.anim_time*90*8)*4", 0, 0]
				},
				"cape_right3": {
					"rotation": ["math.sin(q.anim_time*90*8-90)*4", 0, 0]
				},
				"cape_right4": {
					"rotation": ["math.sin(q.anim_time*90*8-90)*6", 0, 0]
				},
				"neck": {
					"rotation": [17.5, 0, 0],
					"position": [0, -0.2, 0]
				},
				"head": {
					"rotation": ["-27.5-math.sin(q.anim_time*90*8-50)*3", 0, 0]
				},
				"tail": {
					"rotation": [-5, "math.sin(q.anim_time*90*4-90)*5", "math.sin(q.anim_time*90*4-90)*1"]
				},
				"tail2": {
					"rotation": [-25, "math.sin(q.anim_time*90*4-135)*2", "math.sin(q.anim_time*90*4-135)*4"]
				},
				"tail3": {
					"rotation": [-15, "math.sin(q.anim_time*90*4-270)*2", "math.sin(q.anim_time*90*4-180)*2"]
				},
				"tail4": {
					"rotation": [20, "math.sin(q.anim_time*90*4-360)5", 0]
				},
				"tail5": {
					"rotation": [42.5, "math.sin(q.anim_time*90*4-360)*10", 0]
				},
				"tail_fin3": {
					"rotation": [0, 0, 0]
				},
				"tail6": {
					"rotation": [27.5, "math.sin(q.anim_time*90*4-450)*7.5", 0]
				},
				"tail7": {
					"rotation": [35, "math.sin(q.anim_time*90*4-540)*5", 0]
				},
				"tail8": {
					"rotation": [25, "math.sin(q.anim_time*90*4-590)*5", 0]
				},
				"tail9": {
					"rotation": [17.5, "math.sin(q.anim_time*90*4-640)*15", 0]
				},
				"tail10": {
					"rotation": [-2, "math.sin(q.anim_time*90*4-690)*15", 0]
				},
				"tail11": {
					"rotation": [-35, "math.sin(q.anim_time*90*4-720)*15", 0]
				},
				"tail12": {
					"rotation": [-40, "math.sin(q.anim_time*90*4-725)*25", 0]
				},
				"tail13": {
					"rotation": [-50, 0, 0]
				},
				"legs": {
					"rotation": [-5, 0, 0],
					"position": [0, -0.5, 0]
				},
				"leg_left": {
					"rotation": ["5+math.sin(q.anim_time*90*4-90)*25", 0, 0],
					"position": [0, "math.clamp(-math.sin(q.anim_time*90*4+90*0)*2,0,180)", -0.25]
				},
				"leg_left2": {
					"rotation": ["math.clamp(math.sin(q.anim_time*90*4-180)*35,-5,180)", 0, 0]
				},
				"foot_left": {
					"rotation": ["math.clamp(math.sin(q.anim_time*90*4-180)*25,0,90)", 0, 0]
				},
				"toes_left": {
					"rotation": ["-math.clamp(math.sin(q.anim_time*90*4-90)*20,0,90)", 0, 0]
				},
				"leg_right": {
					"rotation": ["5+math.sin(q.anim_time*90*4+90)*25", 0, 0],
					"position": [0, "math.clamp(math.sin(q.anim_time*90*4+90*0)*2,0,180)", -0.25]
				},
				"leg_right2": {
					"rotation": ["math.clamp(-math.sin(q.anim_time*90*4-180)*35,-5,180)", 0, 0]
				},
				"foot_right": {
					"rotation": ["-math.clamp(math.sin(q.anim_time*90*4-180)*25,-90,0)", 0, 0]
				},
				"toes_right": {
					"rotation": ["-math.clamp(-math.sin(q.anim_time*90*4-90)*20,0,90)", 0, 0]
				},
				"body": {
					"position": [0, "math.abs(math.sin(q.anim_time*90*4)*0.5)", 0]
				},
				"head_fin": {
					"rotation": ["-math.sin(q.anim_time*90*8-90)*1", 0, 0]
				}
			}
		},
		"animation.inteleon.blink": {
			"animation_length": 0.16667,
			"bones": {
				"eyelid_inner_left": {
					"position": {
						"0.0": [0.1, 0, 0],
						"0.125": [0.1, 0, 0],
						"0.1667": [0, 0, 0]
					}
				},
				"eyelid_inner_right": {
					"position": {
						"0.0": [-0.1, 0, 0],
						"0.125": [-0.1, 0, 0],
						"0.1667": [0, 0, 0]
					}
				}
			}
		},
		"animation.inteleon.cry": {
			"animation_length": 2,
			"bones": {
				"eyelid_left": {
					"position": {
						"0.0": [0, 0, 0],
						"0.0833": [0.1, 0, -0.1],
						"0.25": [0.1, 0, -0.1],
						"0.3333": [0, 0, 0]
					}
				},
				"eyelid_right": {
					"position": {
						"0.0": [0, 0, 0],
						"0.0833": [-0.1, 0, -0.1],
						"0.25": [-0.1, 0, -0.1],
						"0.3333": [0, 0, 0]
					}
				},
				"neck": {
					"rotation": {
						"0.0": ["0+math.sin(q.anim_time*90*6+45)*2", 0, 0],
						"0.25": ["0+math.sin(q.anim_time*90*6+45)*4", 0, 0],
						"0.3333": ["-5+math.sin(q.anim_time*90*3+95)*4", 0, 0],
						"1.0": ["-5+math.sin(q.anim_time*90*3)*2", 0, 0],
						"1.5": [0, 0, 0],
						"2.0": ["0+math.sin(q.anim_time*90*6+45)*2", 0, 0]
					}
				},
				"head": {
					"rotation": {
						"0.0": ["0+math.sin(q.anim_time*90*6+45)*2", 0, 0],
						"0.25": ["0+math.sin(q.anim_time*90*6+45)*4", 0, 0],
						"0.3333": ["2.5+math.sin(q.anim_time*90*3+95)*4", 0, 0],
						"1.0": ["math.sin(q.anim_time*90*3)*2", 0, 0],
						"1.5": [0, 0, 0],
						"2.0": ["0+math.sin(q.anim_time*90*6+45)*2", 0, 0]
					}
				},
				"jaw": {
					"rotation": {
						"0.1667": [0, 0, 0],
						"0.25": [20, 0, 0],
						"1.1667": [15, 0, 0],
						"1.3333": [0, 0, 0]
					}
				}
			}
		}
	}
}