{
	"format_version": "1.8.0",
	"animations": {
		"animation.Shinx.new": {
			"loop": true,
			"bones": {
				"waist": {
					"rotation": [-32.5, 0, 0]
				},
				"tail_1": {
					"rotation": [-9.00717, 20.70481, 65.85133]
				},
				"tail_2": {
					"rotation": [67.5, 0, 0]
				},
				"tail_3": {
					"rotation": [45, 45, 0]
				},
				"head": {
					"rotation": [-4.11405, -22.13991, 10.80524]
				},
				"eye_left": {
					"position": [0, 0, 1]
				},
				"eyelid_right2": {
					"position": [0, 0, -3]
				},
				"ear_left": {
					"rotation": [0, 0, 12.5]
				},
				"ear_right": {
					"rotation": [0, 0, -12.5]
				},
				"fluff": {
					"rotation": [0, 0, 20]
				},
				"open_mouth": {
					"position": [0, 0, -2]
				},
				"closed_mouth": {
					"position": [0, 0, 1]
				},
				"back_leg_right": {
					"rotation": [-40.08019, 31.37238, 1.3824],
					"position": [0, -1.5, -1]
				},
				"knee_right": {
					"rotation": [45, 0, 0]
				},
				"front_foot_right": {
					"rotation": [0, -5, 0]
				},
				"back_leg_left": {
					"rotation": [-40.08019, -31.37238, -1.3824],
					"position": [0, -1.5, -1]
				},
				"knee_left": {
					"rotation": [45, 0, 0]
				},
				"front_foot_left": {
					"rotation": [0, 5, 0]
				}
			}
		}
	}
}