{
  "feature": "cobblemon:medicinal_leek",
  "placement": [
    {
      "type": "minecraft:rarity_filter",
      "chance": 6
    },
    {
      "type": "minecraft:in_square"
    },
    {
      "type": "minecraft:surface_water_depth_filter",
      "max_water_depth": 5
    },
    {
      "type": "minecraft:heightmap",
      "heightmap": "WORLD_SURFACE"
    }
  ]
}