{
  "implemented": true,
  "name": "Emolga",
  "nationalPokedexNumber": 587,
  "primaryType": "electric",
  "secondaryType": "flying",
  "abilities": [
    "static",
    "h:motordrive"
  ],
  "baseStats": {
    "hp": 55,
    "attack": 75,
    "defence": 60,
    "special_attack": 75,
    "special_defence": 60,
    "speed": 103
  },
  "catchRate": 200,
  "maleRatio": 0.5,
  "shoulderMountable": false,
  "baseExperienceYield": 150,
  "experienceGroup": "medium_fast",
  "eggCycles": 20,
  "eggGroups": [
    "field"
  ],
  "behaviour": {
    "moving": {
      "fly": {
        "canFly": true
      }
    }
  },
  "moves": [
    "1:nuzzle",
    "1:tailwhip",
    "5:doubleteam",
    "10:quickattack",
    "15:thundershock",
    "16:pursuit",
    "20:charge",
    "22:shockwave",
    "25:acrobatics",
    "26:electroball",
    "30:spark",
    "35:encore",
    "40:voltswitch",
    "45:lightscreen",
    "50:discharge",
    "55:agility",
    "egg:airslash",
    "egg:astonish",
    "egg:batonpass",
    "egg:charm",
    "egg:covet",
    "egg:defog",
    "egg:iondeluge",
    "egg:irontail",
    "egg:roost",
    "egg:shockwave",
    "egg:speedswap",
    "egg:tickle",
    "tm:acrobatics",
    "tm:aerialace",
    "tm:agility",
    "tm:airslash",
    "tm:attract",
    "tm:batonpass",
    "tm:chargebeam",
    "tm:charm",
    "tm:confide",
    "tm:cut",
    "tm:doubleteam",
    "tm:eerieimpulse",
    "tm:electroball",
    "tm:electroweb",
    "tm:encore",
    "tm:endure",
    "tm:energyball",
    "tm:facade",
    "tm:flash",
    "tm:fling",
    "tm:frustration",
    "tm:helpinghand",
    "tm:hiddenpower",
    "tm:irontail",
    "tm:lightscreen",
    "tm:protect",
    "tm:raindance",
    "tm:rest",
    "tm:return",
    "tm:roost",
    "tm:round",
    "tm:secretpower",
    "tm:sleeptalk",
    "tm:snore",
    "tm:solarbeam",
    "tm:speedswap",
    "tm:substitute",
    "tm:swagger",
    "tm:swift",
    "tm:taunt",
    "tm:thunder",
    "tm:thunderbolt",
    "tm:thunderwave",
    "tm:toxic",
    "tm:uturn",
    "tm:voltswitch",
    "tm:wildcharge",
    "tutor:airslash",
    "tutor:charm",
    "tutor:covet",
    "tutor:defog",
    "tutor:dualwingbeat",
    "tutor:electroweb",
    "tutor:helpinghand",
    "tutor:irontail",
    "tutor:knockoff",
    "tutor:lastresort",
    "tutor:quickattack",
    "tutor:risingvoltage",
    "tutor:roost",
    "tutor:shockwave",
    "tutor:signalbeam",
    "tutor:sleeptalk",
    "tutor:snore",
    "tutor:tailwind"
  ],
  "labels": [
    "gen5"
  ],
  "pokedex": [
    "cobblemon.species.emolga.desc"
  ],
  "evolutions": [],
  "baseScale": 0.5,
  "hitbox": {
    "width": 0.9,
    "height": 1,
    "fixed": false
  },
  "baseFriendship": 50,
  "evYield": {
    "hp": 0,
    "attack": 0,
    "defence": 0,
    "special_attack": 0,
    "special_defence": 0,
    "speed": 2
  },
  "height": 4,
  "weight": 50,
  "aspects": [],
  "cannotDynamax": false
}