{
  "name": "Krokorok",
  "nationalPokedexNumber": 552,
  "primaryType": "ground",
  "secondaryType": "dark",
  "abilities": [
    "intimidate",
    "moxie",
    "h:angerpoint"
  ],
  "baseStats": {
    "hp": 60,
    "attack": 82,
    "defence": 45,
    "special_attack": 45,
    "special_defence": 45,
    "speed": 74
  },
  "catchRate": 90,
  "maleRatio": 0.5,
  "shoulderMountable": false,
  "baseExperienceYield": 123,
  "experienceGroup": "medium_slow",
  "eggCycles": 20,
  "eggGroups": [
    "field"
  ],
  "moves": [
    "1:honeclaws",
    "1:leer",
    "1:powertrip",
    "1:rage",
    "1:sandattack",
    "9:sandtomb",
    "12:scaryface",
    "15:bite",
    "16:assurance",
    "18:torment",
    "19:mudslap",
    "21:dig",
    "22:embargo",
    "24:swagger",
    "27:crunch",
    "32:sandstorm",
    "35:foulplay",
    "42:earthquake",
    "47:thrash",
    "tm:aerialace",
    "tm:assurance",
    "tm:attract",
    "tm:beatup",
    "tm:bodyslam",
    "tm:brickbreak",
    "tm:brutalswing",
    "tm:bulldoze",
    "tm:confide",
    "tm:crunch",
    "tm:cut",
    "tm:darkpulse",
    "tm:dig",
    "tm:doubleteam",
    "tm:dragonclaw",
    "tm:dragontail",
    "tm:earthpower",
    "tm:earthquake",
    "tm:embargo",
    "tm:endure",
    "tm:facade",
    "tm:firefang",
    "tm:fling",
    "tm:focusenergy",
    "tm:foulplay",
    "tm:frustration",
    "tm:grassknot",
    "tm:helpinghand",
    "tm:hiddenpower",
    "tm:honeclaws",
    "tm:incinerate",
    "tm:irontail",
    "tm:lowkick",
    "tm:lowsweep",
    "tm:megakick",
    "tm:megapunch",
    "tm:mudshot",
    "tm:mudslap",
    "tm:payback",
    "tm:poweruppunch",
    "tm:protect",
    "tm:rest",
    "tm:retaliate",
    "tm:return",
    "tm:revenge",
    "tm:roar",
    "tm:rockslide",
    "tm:rocksmash",
    "tm:rocktomb",
    "tm:round",
    "tm:sandstorm",
    "tm:sandtomb",
    "tm:scaryface",
    "tm:secretpower",
    "tm:shadowclaw",
    "tm:sleeptalk",
    "tm:sludgebomb",
    "tm:snarl",
    "tm:snore",
    "tm:stealthrock",
    "tm:stompingtantrum",
    "tm:stoneedge",
    "tm:strength",
    "tm:substitute",
    "tm:swagger",
    "tm:takedown",
    "tm:taunt",
    "tm:terablast",
    "tm:thief",
    "tm:thunderfang",
    "tm:torment",
    "tm:toxic",
    "tm:uproar",
    "tutor:aquatail",
    "tutor:darkpulse",
    "tutor:earthpower",
    "tutor:focuspunch",
    "tutor:foulplay",
    "tutor:irontail",
    "tutor:knockoff",
    "tutor:lashout",
    "tutor:lowkick",
    "tutor:scorchingsands",
    "tutor:skittersmack",
    "tutor:sleeptalk",
    "tutor:snatch",
    "tutor:snore",
    "tutor:spite",
    "tutor:stealthrock",
    "tutor:uproar"
  ],
  "labels": [
    "gen5"
  ],
  "pokedex": [
    "cobblemon.species.krokorok.desc"
  ],
  "preEvolution": "sandile",
  "evolutions": [
    {
      "id": "krokorok_krookodile",
      "variant": "level_up",
      "result": "krookodile",
      "consumeHeldItem": false,
      "learnableMoves": [],
      "requirements": [
        {
          "variant": "level",
          "minLevel": 40
        }
      ]
    }
  ],
  "baseScale": 1,
  "hitbox": {
    "width": 1,
    "height": 1,
    "fixed": false
  },
  "baseFriendship": 50,
  "evYield": {
    "hp": 0,
    "attack": 2,
    "defence": 0,
    "special_attack": 0,
    "special_defence": 0,
    "speed": 0
  },
  "height": 10,
  "weight": 334,
  "aspects": [],
  "cannotDynamax": false
}