{
  "head": "head",
  "portraitScale": 1.65,
  "portraitTranslation": [0, -0.6, 0],
  "profileScale": 1,
  "profileTranslation": [0, 0.15, 0],
  "faint": "bedrock(0001_bulbasaur/bulbasaur, faint)",
  "poses": {
    "battle-standing": {
      "poseName": "battle-standing",
      "poseTypes": ["STAND"],
      "isBattle": true,
      "transformedParts": [
        {
          "part": "bulb",
          "visible": false
        }
      ]
    },
    "standing": {
      "poseName": "standing",
      "transformTicks": 10,
      "poseTypes": ["STAND", "NONE", "PORTRAIT", "PROFILE", "FLOAT"],
      "animations": [
        "look",
        "bedrock(bulbasaur, ground_idle)"
      ]
    },
    "walking": {
      "poseName": "walking",
      "poseTypes": ["WALK"],
      "animations": [
        "look",
        "bedrock(bulbasaur, ground_walk)"
      ]
    }
  }
}