{
  "replace": false,
  "values": [
    {
      "id": "terralith:caldera",
      "required": false
    },
	{
      "id": "terralith:cave/thermal_caves",
      "required": false
    },
	{
      "id": "terralith:yellowstone",
      "required": false
    }
  ]
}
