{
	"format_version": "1.12.0",
	"minecraft:geometry": [
		{
			"description": {
				"identifier": "geometry.exeggutor_alolan",
				"texture_width": 128,
				"texture_height": 128,
				"visible_bounds_width": 5,
				"visible_bounds_height": 9.5,
				"visible_bounds_offset": [0, 4.25, 0]
			},
			"bones": [
				{
					"name": "exeggutor",
					"pivot": [0, 0, 0]
				},
				{
					"name": "body",
					"parent": "exeggutor",
					"pivot": [0, 1, 0]
				},
				{
					"name": "torso",
					"parent": "body",
					"pivot": [0, 1, 0],
					"cubes": [
						{"origin": [-5.5, 7, -5.5], "size": [11, 11, 11], "uv": [0, 0]},
						{"origin": [-4, 18, -4], "size": [8, 5, 8], "uv": [0, 104]}
					]
				},
				{
					"name": "tail",
					"parent": "torso",
					"pivot": [0, 10.5, 4.5],
					"cubes": [
						{"origin": [-2.5, 8, 3.5], "size": [5, 5, 8], "uv": [0, 49]}
					]
				},
				{
					"name": "tail2",
					"parent": "tail",
					"pivot": [0, 10.5, 10.5],
					"cubes": [
						{"origin": [-2, 8.5, 9.5], "size": [4, 4, 7], "uv": [68, 8]}
					]
				},
				{
					"name": "tail3",
					"parent": "tail2",
					"pivot": [0, 10.5, 15.5],
					"cubes": [
						{"origin": [-1.5, 9, 14.5], "size": [3, 3, 7], "uv": [67, 81]}
					]
				},
				{
					"name": "tail4",
					"parent": "tail3",
					"pivot": [0, 10.5, 20.5],
					"cubes": [
						{"origin": [-1, 9.5, 19.5], "size": [2, 2, 7], "uv": [83, 32]}
					]
				},
				{
					"name": "tail5",
					"parent": "tail4",
					"pivot": [0, 10.25, 27],
					"cubes": [
						{"origin": [-2.5, 3.25, 24.5], "size": [5, 7, 5], "uv": [0, 80]},
						{"origin": [-1, 6.25, 29], "size": [2, 1, 3], "uv": [40, 2]}
					]
				},
				{
					"name": "tail_eye_left",
					"parent": "tail5",
					"pivot": [-0.5, 2, 29],
					"cubes": [
						{"origin": [1.25, 6.5, 29.51], "size": [1, 1, 0], "uv": [8, 1]}
					]
				},
				{
					"name": "tail_eyelid_left",
					"parent": "tail_eye_left",
					"pivot": [1.75, 7, 29.41],
					"cubes": [
						{"origin": [1.25, 6.5, 28.41], "size": [1, 1, 1], "inflate": 0.01, "uv": [98, 2]}
					]
				},
				{
					"name": "tail_eye_right",
					"parent": "tail5",
					"pivot": [0.5, 2, 29],
					"cubes": [
						{"origin": [-2.25, 6.5, 29.51], "size": [1, 1, 0], "uv": [8, 0]}
					]
				},
				{
					"name": "tail_eyelid_right",
					"parent": "tail_eye_right",
					"pivot": [-1.75, 7, 29.41],
					"cubes": [
						{"origin": [-2.25, 6.5, 28.41], "size": [1, 1, 1], "inflate": 0.01, "uv": [98, 0]}
					]
				},
				{
					"name": "tail_jaw",
					"parent": "tail5",
					"pivot": [0, 6.25, 29.5],
					"cubes": [
						{"origin": [-1, 5.25, 29], "size": [2, 1, 3], "uv": [33, 5]}
					]
				},
				{
					"name": "tail_leaf_right",
					"parent": "tail5",
					"pivot": [0, 10.25, 27],
					"rotation": [0, 0, 37.5],
					"cubes": [
						{"origin": [-5, 10.25, 25.5], "size": [5, 0, 3], "uv": [30, 0]}
					]
				},
				{
					"name": "tail_leaf_right2",
					"parent": "tail_leaf_right",
					"pivot": [-5, 10.25, 27],
					"rotation": [0, 0, -57.5],
					"cubes": [
						{"origin": [-10, 10.25, 26], "size": [5, 0, 2], "uv": [31, 3]}
					]
				},
				{
					"name": "tail_leaf_left",
					"parent": "tail5",
					"pivot": [0, 10.25, 27],
					"rotation": [0, 0, -37.5],
					"cubes": [
						{"origin": [0, 10.25, 25.5], "size": [5, 0, 3], "uv": [21, 27]}
					]
				},
				{
					"name": "tail_leaf_left2",
					"parent": "tail_leaf_left",
					"pivot": [5, 10.25, 27],
					"rotation": [0, 0, 57.5],
					"cubes": [
						{"origin": [5, 10.25, 26], "size": [5, 0, 2], "uv": [22, 30]}
					]
				},
				{
					"name": "neck",
					"parent": "torso",
					"pivot": [0, 22, 0],
					"cubes": [
						{"origin": [-2.5, 21, -2.5], "size": [5, 10, 5], "inflate": 0.01, "uv": [53, 15]}
					]
				},
				{
					"name": "neck2",
					"parent": "neck",
					"pivot": [0, 30.5, 0],
					"cubes": [
						{"origin": [-2.5, 30, -2.5], "size": [5, 9, 5], "uv": [15, 71]}
					]
				},
				{
					"name": "neck3",
					"parent": "neck2",
					"pivot": [0, 38.5, 0],
					"cubes": [
						{"origin": [-2.5, 38, -2.5], "size": [5, 9, 5], "inflate": 0.01, "uv": [70, 46]}
					]
				},
				{
					"name": "neck4",
					"parent": "neck3",
					"pivot": [0, 46.5, 0],
					"cubes": [
						{"origin": [-2.5, 46, -2.5], "size": [5, 9, 5], "uv": [70, 25]}
					]
				},
				{
					"name": "neck5",
					"parent": "neck4",
					"pivot": [0, 54.5, 0],
					"cubes": [
						{"origin": [-2.5, 54, -2.5], "size": [5, 9, 5], "inflate": 0.01, "uv": [36, 69]}
					]
				},
				{
					"name": "neck6",
					"parent": "neck5",
					"pivot": [0, 62.5, 0],
					"cubes": [
						{"origin": [-2.5, 62, -2.5], "size": [5, 9, 5], "uv": [63, 64]}
					]
				},
				{
					"name": "neck7",
					"parent": "neck6",
					"pivot": [0, 71, 0],
					"cubes": [
						{"origin": [-2.5, 70, -2.5], "size": [5, 9, 5], "inflate": 0.01, "uv": [0, 62]}
					]
				},
				{
					"name": "neck8",
					"parent": "neck7",
					"pivot": [0, 78.5, 0],
					"cubes": [
						{"origin": [-2.5, 78, -2.5], "size": [5, 9, 5], "uv": [21, 57]}
					]
				},
				{
					"name": "neck9",
					"parent": "neck8",
					"pivot": [0, 86.5, 0],
					"cubes": [
						{"origin": [-2.5, 86, -2.5], "size": [5, 9, 5], "inflate": 0.01, "uv": [55, 37]}
					]
				},
				{
					"name": "neck10",
					"parent": "neck9",
					"pivot": [0, 94.5, 0],
					"cubes": [
						{"origin": [-2.5, 94, -2.5], "size": [5, 12, 5], "uv": [48, 52]}
					]
				},
				{
					"name": "neck11",
					"parent": "neck10",
					"pivot": [0, 107.5, 0],
					"cubes": [
						{"origin": [-4, 105, -4], "size": [8, 11, 8], "uv": [0, 27]}
					]
				},
				{
					"name": "upperHead",
					"parent": "neck11",
					"pivot": [0, 91.5, 0]
				},
				{
					"name": "head",
					"parent": "upperHead",
					"pivot": [0, 112, -3.5],
					"rotation": [-7.5, 0, 0],
					"cubes": [
						{"origin": [-3.5, 108.5, -10.5], "size": [7, 8, 7], "uv": [44, 0]}
					]
				},
				{
					"name": "mouth_closed",
					"parent": "head",
					"pivot": [0, 108.75, -4.5],
					"cubes": [
						{"origin": [-2.5, 110, -10.41], "size": [5, 2, 0], "uv": [53, 30]}
					]
				},
				{
					"name": "mouth_open",
					"parent": "head",
					"pivot": [0, 110.5, -10.51],
					"cubes": [
						{"origin": [-3, 110, -10.51], "size": [6, 2, 0], "uv": [24, 32]}
					]
				},
				{
					"name": "eye_left",
					"parent": "head",
					"pivot": [2.01, 113.25, -10.01],
					"cubes": [
						{"origin": [0.51, 112.25, -10.51], "size": [3, 3, 1], "uv": [60, 32]}
					]
				},
				{
					"name": "eyelid_left",
					"parent": "eye_left",
					"pivot": [1.91, 113.25, -9.91],
					"cubes": [
						{"origin": [0.41, 112.25, -10.41], "size": [3, 3, 1], "inflate": 0.01, "uv": [103, 4]}
					]
				},
				{
					"name": "eye_right",
					"parent": "head",
					"pivot": [-2.01, 113.25, -10.01],
					"cubes": [
						{"origin": [-3.51, 112.25, -10.51], "size": [3, 3, 1], "uv": [46, 42]}
					]
				},
				{
					"name": "eyelid_right",
					"parent": "eye_right",
					"pivot": [-1.91, 113.25, -9.91],
					"cubes": [
						{"origin": [-3.41, 112.25, -10.41], "size": [3, 3, 1], "inflate": 0.01, "uv": [103, 0]}
					]
				},
				{
					"name": "head2",
					"parent": "upperHead",
					"pivot": [4, 112, -2],
					"rotation": [-7.5, -60, 0],
					"cubes": [
						{"origin": [0.5, 108.5, -9], "size": [7, 8, 7], "uv": [25, 42]}
					]
				},
				{
					"name": "mouth_closed2",
					"parent": "head2",
					"pivot": [4, 108.75, -2.9],
					"cubes": [
						{"origin": [1.5, 110.5, -8.91], "size": [5, 2, 0], "uv": [20, 46]}
					]
				},
				{
					"name": "mouth_open2",
					"parent": "head2",
					"pivot": [4, 111.25, -9.01],
					"cubes": [
						{"origin": [2, 110.5, -9.01], "size": [4, 2, 0], "uv": [0, 76]}
					]
				},
				{
					"name": "eye_left2",
					"parent": "head2",
					"pivot": [6.01, 113, -8.51],
					"cubes": [
						{"origin": [4.51, 113, -9.01], "size": [3, 1, 1], "uv": [75, 62]}
					]
				},
				{
					"name": "eyelid_left2",
					"parent": "eye_left2",
					"pivot": [5.91, 113, -8.41],
					"cubes": [
						{"origin": [4.41, 113, -8.91], "size": [3, 1, 1], "inflate": 0.01, "uv": [75, 44]}
					]
				},
				{
					"name": "eye_right2",
					"parent": "head2",
					"pivot": [1.99, 113, -8.51],
					"cubes": [
						{"origin": [0.49, 113, -9.01], "size": [3, 1, 1], "uv": [75, 42]}
					]
				},
				{
					"name": "eyelid_right2",
					"parent": "eye_right2",
					"pivot": [2.09, 113, -8.41],
					"cubes": [
						{"origin": [0.59, 113, -8.91], "size": [3, 1, 1], "inflate": 0.01, "uv": [43, 0]}
					]
				},
				{
					"name": "head3",
					"parent": "upperHead",
					"pivot": [-4, 112, -2],
					"rotation": [-7.5, 60, 0],
					"cubes": [
						{"origin": [-7.5, 108.5, -9], "size": [7, 8, 7], "uv": [32, 27]}
					]
				},
				{
					"name": "mouth_closed3",
					"parent": "head3",
					"pivot": [-4, 108.75, -3],
					"cubes": [
						{"origin": [-6.5, 110, -8.91], "size": [5, 2, 0], "uv": [33, 9]}
					]
				},
				{
					"name": "mouth_open3",
					"parent": "head3",
					"pivot": [-4, 110.5, -9.01],
					"cubes": [
						{"origin": [-7, 109, -9.01], "size": [6, 3, 0], "uv": [8, 46]}
					]
				},
				{
					"name": "eye_left3",
					"parent": "head3",
					"pivot": [-1.99, 113.25, -8.51],
					"cubes": [
						{"origin": [-3.49, 112.25, -9.01], "size": [3, 2, 1], "uv": [30, 71]}
					]
				},
				{
					"name": "eyelid_left3",
					"parent": "eye_left3",
					"pivot": [-2.09, 113.25, -8.41],
					"cubes": [
						{"origin": [-3.59, 112.25, -8.91], "size": [3, 2, 1], "inflate": 0.01, "uv": [70, 39]}
					]
				},
				{
					"name": "eye_right3",
					"parent": "head3",
					"pivot": [-6.01, 113.25, -8.51],
					"cubes": [
						{"origin": [-7.51, 112.25, -9.01], "size": [3, 2, 1], "uv": [68, 60]}
					]
				},
				{
					"name": "eyelid_right3",
					"parent": "eye_right3",
					"pivot": [-5.91, 113.35, -8.51],
					"cubes": [
						{"origin": [-7.41, 112.25, -8.91], "size": [3, 2, 1], "inflate": 0.01, "uv": [46, 46]}
					]
				},
				{
					"name": "leaves_inner",
					"parent": "upperHead",
					"pivot": [0, 113.5, -0.5],
					"rotation": [0, 180, 0]
				},
				{
					"name": "leaf_set11",
					"parent": "leaves_inner",
					"pivot": [0, 114.5, -0.5]
				},
				{
					"name": "leaf31",
					"parent": "leaf_set11",
					"pivot": [0, 114.5, -1.5],
					"rotation": [30, 0, 0],
					"cubes": [
						{"origin": [-2, 114.5, -1.5], "size": [4, 8, 0], "uv": [90, 52]}
					]
				},
				{
					"name": "leaf32",
					"parent": "leaf31",
					"pivot": [0, 122.5, -1.5],
					"rotation": [42.5, 0, 0],
					"cubes": [
						{"origin": [-2, 122.5, -1.5], "size": [4, 11, 0], "uv": [50, 87]}
					]
				},
				{
					"name": "leaf33",
					"parent": "leaf32",
					"pivot": [0, 133.5, -1.5],
					"rotation": [42.5, 0, 0],
					"cubes": [
						{"origin": [-1.5, 133.5, -1.5], "size": [3, 8, 0], "uv": [44, 93]}
					]
				},
				{
					"name": "leaf_set10",
					"parent": "leaves_inner",
					"pivot": [0, 114.5, -0.5],
					"rotation": [0, 144, 0]
				},
				{
					"name": "leaf28",
					"parent": "leaf_set10",
					"pivot": [0, 114.5, -1.5],
					"rotation": [22.5, 0, 0],
					"cubes": [
						{"origin": [-2, 114.5, -1.5], "size": [4, 8, 0], "uv": [0, 27]}
					]
				},
				{
					"name": "leaf29",
					"parent": "leaf28",
					"pivot": [0, 122.5, -1.5],
					"rotation": [42.5, 0, 0],
					"cubes": [
						{"origin": [-2, 122.5, -1.5], "size": [4, 11, 0], "uv": [44, 15]}
					]
				},
				{
					"name": "leaf30",
					"parent": "leaf29",
					"pivot": [0, 133.5, -1.5],
					"rotation": [42.5, 0, 0],
					"cubes": [
						{"origin": [-1.5, 133.5, -1.5], "size": [3, 8, 0], "uv": [18, 49]}
					]
				},
				{
					"name": "leaf_set12",
					"parent": "leaves_inner",
					"pivot": [0, 114.5, -0.5],
					"rotation": [0, -72, 0]
				},
				{
					"name": "leaf34",
					"parent": "leaf_set12",
					"pivot": [0, 114.5, -1.5],
					"rotation": [25, 0, 0],
					"cubes": [
						{"origin": [-2, 114.5, -1.5], "size": [4, 8, 0], "uv": [90, 23]}
					]
				},
				{
					"name": "leaf35",
					"parent": "leaf34",
					"pivot": [0, 122.5, -1.5],
					"rotation": [42.5, 0, 0],
					"cubes": [
						{"origin": [-2, 122.5, -1.5], "size": [4, 11, 0], "uv": [20, 85]}
					]
				},
				{
					"name": "leaf36",
					"parent": "leaf35",
					"pivot": [0, 133.5, -1.5],
					"rotation": [42.5, 0, 0],
					"cubes": [
						{"origin": [-1.5, 133.5, -1.5], "size": [3, 8, 0], "uv": [56, 69]}
					]
				},
				{
					"name": "leaf_set13",
					"parent": "leaves_inner",
					"pivot": [0, 114.5, -0.5],
					"rotation": [0, -144, 0]
				},
				{
					"name": "leaf37",
					"parent": "leaf_set13",
					"pivot": [0, 114.5, -1.5],
					"rotation": [22.5, 0, 0],
					"cubes": [
						{"origin": [-2, 114.5, -1.5], "size": [4, 8, 0], "uv": [72, 0]}
					]
				},
				{
					"name": "leaf38",
					"parent": "leaf37",
					"pivot": [0, 122.5, -1.5],
					"rotation": [42.5, 0, 0],
					"cubes": [
						{"origin": [-2, 122.5, -1.5], "size": [4, 11, 0], "uv": [0, 46]}
					]
				},
				{
					"name": "leaf39",
					"parent": "leaf38",
					"pivot": [0, 133.5, -1.5],
					"rotation": [42.5, 0, 0],
					"cubes": [
						{"origin": [-1.5, 133.5, -1.5], "size": [3, 8, 0], "uv": [41, 57]}
					]
				},
				{
					"name": "leaf_set9",
					"parent": "leaves_inner",
					"pivot": [0, 114.5, -0.5],
					"rotation": [0, 72, 0]
				},
				{
					"name": "leaf25",
					"parent": "leaf_set9",
					"pivot": [0, 114.5, -1.5],
					"rotation": [25, 0, 0],
					"cubes": [
						{"origin": [-2, 114.5, -1.5], "size": [4, 8, 0], "uv": [90, 92]}
					]
				},
				{
					"name": "leaf26",
					"parent": "leaf25",
					"pivot": [0, 122.5, -1.5],
					"rotation": [42.5, 0, 0],
					"cubes": [
						{"origin": [-2, 122.5, -1.5], "size": [4, 11, 0], "uv": [58, 87]}
					]
				},
				{
					"name": "leaf27",
					"parent": "leaf26",
					"pivot": [0, 133.5, -1.5],
					"rotation": [42.5, 0, 0],
					"cubes": [
						{"origin": [-1.5, 133.5, -1.5], "size": [3, 8, 0], "uv": [98, 49]}
					]
				},
				{
					"name": "leaves_outer",
					"parent": "upperHead",
					"pivot": [0, 92.5, -1.5]
				},
				{
					"name": "leaf_set",
					"parent": "leaves_outer",
					"pivot": [0, 114.5, 0]
				},
				{
					"name": "leaf",
					"parent": "leaf_set",
					"pivot": [0, 114.5, -3],
					"rotation": [22.5, 0, 0],
					"cubes": [
						{"origin": [-2, 114.5, -3], "size": [4, 8, 0], "uv": [98, 41]}
					]
				},
				{
					"name": "leaf2",
					"parent": "leaf",
					"pivot": [0, 122.5, -3],
					"rotation": [55, 0, 0],
					"cubes": [
						{"origin": [-2, 122.5, -3], "size": [4, 11, 0], "uv": [82, 92]}
					]
				},
				{
					"name": "leaf3",
					"parent": "leaf2",
					"pivot": [0, 133.5, -3],
					"rotation": [42.5, 0, 0],
					"cubes": [
						{"origin": [-1.5, 133.5, -3], "size": [3, 8, 0], "uv": [24, 101]}
					]
				},
				{
					"name": "leaf_set2",
					"parent": "leaves_outer",
					"pivot": [0, 114.5, 0],
					"rotation": [0, 45, 0]
				},
				{
					"name": "leaf4",
					"parent": "leaf_set2",
					"pivot": [0, 114.5, -3],
					"rotation": [30, 0, 0],
					"cubes": [
						{"origin": [-2, 114.5, -3], "size": [4, 8, 0], "uv": [98, 23]}
					]
				},
				{
					"name": "leaf5",
					"parent": "leaf4",
					"pivot": [0, 122.5, -3],
					"rotation": [55, 0, 0],
					"cubes": [
						{"origin": [-2, 122.5, -3], "size": [4, 11, 0], "uv": [8, 92]}
					]
				},
				{
					"name": "leaf6",
					"parent": "leaf5",
					"pivot": [0, 133.5, -3],
					"rotation": [42.5, 0, 0],
					"cubes": [
						{"origin": [-1.5, 133.5, -3], "size": [3, 8, 0], "uv": [90, 100]}
					]
				},
				{
					"name": "leaf_set3",
					"parent": "leaves_outer",
					"pivot": [0, 114.5, 0],
					"rotation": [0, 90, 0]
				},
				{
					"name": "leaf7",
					"parent": "leaf_set3",
					"pivot": [0, 114.5, -3],
					"rotation": [37.5, 0, 0],
					"cubes": [
						{"origin": [-2, 114.5, -3], "size": [4, 8, 0], "uv": [94, 31]}
					]
				},
				{
					"name": "leaf8",
					"parent": "leaf7",
					"pivot": [0, 122.5, -3],
					"rotation": [55, 0, 0],
					"cubes": [
						{"origin": [-2, 122.5, -3], "size": [4, 11, 0], "uv": [0, 92]}
					]
				},
				{
					"name": "leaf9",
					"parent": "leaf8",
					"pivot": [0, 133.5, -3],
					"rotation": [42.5, 0, 0],
					"cubes": [
						{"origin": [-1.5, 133.5, -3], "size": [3, 8, 0], "uv": [100, 10]}
					]
				},
				{
					"name": "leaf_set4",
					"parent": "leaves_outer",
					"pivot": [0, 114.5, 0],
					"rotation": [0, 135, 0]
				},
				{
					"name": "leaf10",
					"parent": "leaf_set4",
					"pivot": [0, 114.5, -3],
					"rotation": [35, 0, 0],
					"cubes": [
						{"origin": [-2, 114.5, -3], "size": [4, 8, 0], "uv": [16, 96]}
					]
				},
				{
					"name": "leaf11",
					"parent": "leaf10",
					"pivot": [0, 122.5, -3],
					"rotation": [55, 0, 0],
					"cubes": [
						{"origin": [-2, 122.5, -3], "size": [4, 11, 0], "uv": [74, 91]}
					]
				},
				{
					"name": "leaf12",
					"parent": "leaf11",
					"pivot": [0, 133.5, -3],
					"rotation": [42.5, 0, 0],
					"cubes": [
						{"origin": [-1.5, 133.5, -3], "size": [3, 8, 0], "uv": [98, 97]}
					]
				},
				{
					"name": "leaf_set5",
					"parent": "leaves_outer",
					"pivot": [0, 114.5, 0],
					"rotation": [0, 180, 0]
				},
				{
					"name": "leaf13",
					"parent": "leaf_set5",
					"pivot": [0, 114.5, -3],
					"rotation": [40, 0, 0],
					"cubes": [
						{"origin": [-2, 114.5, -3], "size": [4, 8, 0], "uv": [95, 81]}
					]
				},
				{
					"name": "leaf14",
					"parent": "leaf13",
					"pivot": [0, 122.5, -3],
					"rotation": [55, 0, 0],
					"cubes": [
						{"origin": [-2, 122.5, -3], "size": [4, 11, 0], "uv": [66, 91]}
					]
				},
				{
					"name": "leaf15",
					"parent": "leaf14",
					"pivot": [0, 133.5, -3],
					"rotation": [42.5, 0, 0],
					"cubes": [
						{"origin": [-1.5, 133.5, -3], "size": [3, 8, 0], "uv": [98, 89]}
					]
				},
				{
					"name": "leaf_set6",
					"parent": "leaves_outer",
					"pivot": [0, 114.5, 0],
					"rotation": [0, -135, 0]
				},
				{
					"name": "leaf16",
					"parent": "leaf_set6",
					"pivot": [0, 114.5, -3],
					"rotation": [35, 0, 0],
					"cubes": [
						{"origin": [-2, 114.5, -3], "size": [4, 8, 0], "uv": [95, 69]}
					]
				},
				{
					"name": "leaf17",
					"parent": "leaf16",
					"pivot": [0, 122.5, -3],
					"rotation": [55, 0, 0],
					"cubes": [
						{"origin": [-2, 122.5, -3], "size": [4, 11, 0], "uv": [90, 41]}
					]
				},
				{
					"name": "leaf18",
					"parent": "leaf17",
					"pivot": [0, 133.5, -3],
					"rotation": [42.5, 0, 0],
					"cubes": [
						{"origin": [-1.5, 133.5, -3], "size": [3, 8, 0], "uv": [98, 57]}
					]
				},
				{
					"name": "leaf_set7",
					"parent": "leaves_outer",
					"pivot": [0, 114.5, 0],
					"rotation": [0, -90, 0]
				},
				{
					"name": "leaf19",
					"parent": "leaf_set7",
					"pivot": [0, 114.5, -3],
					"rotation": [37.5, 0, 0],
					"cubes": [
						{"origin": [-2, 114.5, -3], "size": [4, 8, 0], "uv": [36, 93]}
					]
				},
				{
					"name": "leaf20",
					"parent": "leaf19",
					"pivot": [0, 122.5, -3],
					"rotation": [55, 0, 0],
					"cubes": [
						{"origin": [-2, 122.5, -3], "size": [4, 11, 0], "uv": [0, 0]}
					]
				},
				{
					"name": "leaf21",
					"parent": "leaf20",
					"pivot": [0, 133.5, -3],
					"rotation": [42.5, 0, 0],
					"cubes": [
						{"origin": [-1.5, 133.5, -3], "size": [3, 8, 0], "uv": [56, 98]}
					]
				},
				{
					"name": "leaf_set8",
					"parent": "leaves_outer",
					"pivot": [0, 114.5, 0],
					"rotation": [0, -45, 0]
				},
				{
					"name": "leaf22",
					"parent": "leaf_set8",
					"pivot": [0, 114.5, -3],
					"rotation": [30, 0, 0],
					"cubes": [
						{"origin": [-2, 114.5, -3], "size": [4, 8, 0], "uv": [28, 93]}
					]
				},
				{
					"name": "leaf23",
					"parent": "leaf22",
					"pivot": [0, 122.5, -3],
					"rotation": [55, 0, 0],
					"cubes": [
						{"origin": [-2, 122.5, -3], "size": [4, 11, 0], "uv": [87, 81]}
					]
				},
				{
					"name": "leaf24",
					"parent": "leaf23",
					"pivot": [0, 133.5, -3],
					"rotation": [42.5, 0, 0],
					"cubes": [
						{"origin": [-1.5, 133.5, -3], "size": [3, 8, 0], "uv": [50, 98]}
					]
				},
				{
					"name": "leg_left",
					"parent": "body",
					"pivot": [4.5, 8.5, 0],
					"cubes": [
						{"origin": [2, 6, -2.5], "size": [5, 5, 5], "inflate": 0.001, "uv": [30, 83]}
					]
				},
				{
					"name": "leg_left2",
					"parent": "leg_left",
					"pivot": [4.5, 6, -2.5],
					"cubes": [
						{"origin": [2, 2, -2.5], "size": [5, 4, 5], "uv": [85, 14]}
					]
				},
				{
					"name": "foot_left",
					"parent": "leg_left2",
					"pivot": [4.5, 2.25, 0.5],
					"cubes": [
						{"origin": [1.5, 0, -3.25], "size": [6, 3, 6], "uv": [50, 78]},
						{"origin": [3.25, 0, -5.25], "size": [0, 2, 2], "uv": [47, 0]},
						{"origin": [5.75, 0, -5.25], "size": [0, 2, 2], "uv": [40, 4]}
					]
				},
				{
					"name": "leg_right",
					"parent": "body",
					"pivot": [-4.5, 8.5, 0],
					"cubes": [
						{"origin": [-7, 6, -2.5], "size": [5, 5, 5], "inflate": 0.001, "uv": [83, 0]}
					]
				},
				{
					"name": "leg_right2",
					"parent": "leg_right",
					"pivot": [-4.5, 6, -2.5],
					"cubes": [
						{"origin": [-7, 2, -2.5], "size": [5, 4, 5], "uv": [78, 60]}
					]
				},
				{
					"name": "foot_right",
					"parent": "leg_right2",
					"pivot": [-4.5, 2.25, 0.5],
					"cubes": [
						{"origin": [-7.5, 0, -3.25], "size": [6, 3, 6], "uv": [77, 72]},
						{"origin": [-3.25, 0, -5.25], "size": [0, 2, 2], "uv": [34, 27]},
						{"origin": [-5.75, 0, -5.25], "size": [0, 2, 2], "uv": [34, 25]}
					]
				}
			]
		}
	]
}