{
  "implemented": true,
  "name": "Cacturne",
  "nationalPokedexNumber": 332,
  "primaryType": "grass",
  "secondaryType": "dark",
  "abilities": [
    "sandveil",
    "h:waterabsorb"
  ],
  "baseStats": {
    "hp": 70,
    "attack": 115,
    "defence": 60,
    "special_attack": 115,
    "special_defence": 60,
    "speed": 55
  },
  "catchRate": 60,
  "maleRatio": 0.5,
  "shoulderMountable": false,
  "baseExperienceYield": 166,
  "experienceGroup": "medium_slow",
  "eggCycles": 20,
  "eggGroups": [
    "grass",
    "human_like"
  ],
  "behaviour": {
    "resting": {
      "canSleep": true,
      "willSleepOnBed": false,
      "depth": "normal",
      "light": "0-4"
    }
  },
  "moves": [
    "1:absorb",
    "1:destinybond",
    "1:growth",
    "1:leer",
    "1:poisonsting",
    "1:revenge",
    "1:spikyshield",
    "10:leechseed",
    "13:sandattack",
    "16:bulletseed",
    "16:needlearm",
    "19:feintattack",
    "19:powertrip",
    "22:ingrain",
    "26:payback",
    "30:spikes",
    "35:suckerpunch",
    "38:pinmissile",
    "44:energyball",
    "49:cottonspore",
    "54:sandstorm",
    "tm:attract",
    "tm:bodyslam",
    "tm:brickbreak",
    "tm:bulldoze",
    "tm:bulletseed",
    "tm:captivate",
    "tm:confide",
    "tm:cut",
    "tm:darkpulse",
    "tm:dig",
    "tm:doubleteam",
    "tm:drainpunch",
    "tm:embargo",
    "tm:encore",
    "tm:endure",
    "tm:energyball",
    "tm:facade",
    "tm:flash",
    "tm:fling",
    "tm:focusblast",
    "tm:focuspunch",
    "tm:foulplay",
    "tm:frustration",
    "tm:gigadrain",
    "tm:gigaimpact",
    "tm:grassknot",
    "tm:grassyterrain",
    "tm:helpinghand",
    "tm:hiddenpower",
    "tm:hyperbeam",
    "tm:leafstorm",
    "tm:lowkick",
    "tm:magicalleaf",
    "tm:nastyplot",
    "tm:naturalgift",
    "tm:naturepower",
    "tm:payback",
    "tm:poisonjab",
    "tm:poweruppunch",
    "tm:protect",
    "tm:raindance",
    "tm:rest",
    "tm:retaliate",
    "tm:return",
    "tm:round",
    "tm:sandstorm",
    "tm:scaryface",
    "tm:secretpower",
    "tm:seedbomb",
    "tm:shadowball",
    "tm:sleeptalk",
    "tm:solarbeam",
    "tm:spikes",
    "tm:stompingtantrum",
    "tm:strength",
    "tm:substitute",
    "tm:sunnyday",
    "tm:swagger",
    "tm:swift",
    "tm:swordsdance",
    "tm:takedown",
    "tm:taunt",
    "tm:terablast",
    "tm:thief",
    "tm:thunderpunch",
    "tm:toxic",
    "tm:toxicspikes",
    "tm:trailblaze",
    "tm:venoshock",
    "tm:zenheadbutt",
    "tutor:block",
    "tutor:bodyslam",
    "tutor:counter",
    "tutor:darkpulse",
    "tutor:doubleedge",
    "tutor:drainpunch",
    "tutor:dynamicpunch",
    "tutor:endure",
    "tutor:feintattack",
    "tutor:focuspunch",
    "tutor:foulplay",
    "tutor:furycutter",
    "tutor:gigadrain",
    "tutor:headbutt",
    "tutor:ingrain",
    "tutor:lowkick",
    "tutor:megakick",
    "tutor:megapunch",
    "tutor:mimic",
    "tutor:mudslap",
    "tutor:needlearm",
    "tutor:roleplay",
    "tutor:seedbomb",
    "tutor:seismictoss",
    "tutor:sleeptalk",
    "tutor:snore",
    "tutor:spikes",
    "tutor:spite",
    "tutor:stompingtantrum",
    "tutor:substitute",
    "tutor:suckerpunch",
    "tutor:superpower",
    "tutor:swagger",
    "tutor:swordsdance",
    "tutor:synthesis",
    "tutor:thunderpunch",
    "tutor:worryseed"
  ],
  "labels": [
    "gen3"
  ],
  "pokedex": [
    "cobblemon.species.cacturne.desc"
  ],
  "preEvolution": "cacnea",
  "evolutions": [],
  "baseScale": 1,
  "hitbox": {
    "width": 1,
    "height": 1,
    "fixed": false
  },
  "baseFriendship": 35,
  "evYield": {
    "hp": 0,
    "attack": 1,
    "defence": 0,
    "special_attack": 1,
    "special_defence": 0,
    "speed": 0
  },
  "height": 13,
  "weight": 774,
  "aspects": [],
  "cannotDynamax": false
}