{
	"credit": "Made with Blockbench",
	"texture_size": [32, 16],
	"textures": {
		"0": "cobblemon:block/vivichoke_seed_stage_2",
		"particle": "cobblemon:block/vivichoke_seed_stage_2"
	},
	"elements": [
		{
			"from": [0, 0, 8],
			"to": [16, 11, 8],
			"rotation": {"angle": 0, "axis": "y", "origin": [8, 0, 8]},
			"faces": {
				"north": {"uv": [0, 0, 8, 11], "texture": "#0"},
				"east": {"uv": [0, 0, 0, 11], "texture": "#0"},
				"south": {"uv": [0, 0, 8, 11], "texture": "#0"},
				"west": {"uv": [0, 0, 0, 11], "texture": "#0"},
				"up": {"uv": [0, 16, 0, 0], "rotation": 270, "texture": "#0"},
				"down": {"uv": [0, 0, 0, 16], "rotation": 90, "texture": "#0"}
			}
		},
		{
			"from": [8, 0, 0],
			"to": [8, 11, 16],
			"rotation": {"angle": 0, "axis": "y", "origin": [8, 0, 8]},
			"faces": {
				"north": {"uv": [0, 0, 0, 11], "texture": "#0"},
				"east": {"uv": [0, 0, 8, 11], "texture": "#0"},
				"south": {"uv": [0, 0, 0, 11], "texture": "#0"},
				"west": {"uv": [0, 0, 8, 11], "texture": "#0"},
				"up": {"uv": [0, 16, 0, 0], "texture": "#0"},
				"down": {"uv": [0, 0, 0, 16], "texture": "#0"}
			}
		},
		{
			"from": [10.5, 9, 5.5],
			"to": [10.5, 14, 10.5],
			"rotation": {"angle": 22.5, "axis": "z", "origin": [10.5, 9, 8]},
			"faces": {
				"north": {"uv": [0, 0, 0, 3], "texture": "#0"},
				"east": {"uv": [10.5, 4, 13, 9], "texture": "#0"},
				"south": {"uv": [0, 0, 0, 3], "texture": "#0"},
				"west": {"uv": [13, 4, 15.5, 9], "texture": "#0"},
				"up": {"uv": [0, 5, 0, 0], "texture": "#0"},
				"down": {"uv": [0, 0, 0, 5], "texture": "#0"}
			}
		},
		{
			"from": [5.5, 9, 5.5],
			"to": [5.5, 14, 10.5],
			"rotation": {"angle": -22.5, "axis": "z", "origin": [5.5, 9, 8]},
			"faces": {
				"north": {"uv": [0, 0, 0, 3], "texture": "#0"},
				"east": {"uv": [13, 4, 15.5, 9], "texture": "#0"},
				"south": {"uv": [0, 0, 0, 3], "texture": "#0"},
				"west": {"uv": [10.5, 4, 13, 9], "texture": "#0"},
				"up": {"uv": [0, 5, 0, 0], "rotation": 180, "texture": "#0"},
				"down": {"uv": [0, 0, 0, 5], "rotation": 180, "texture": "#0"}
			}
		},
		{
			"from": [5, 8.98, 3],
			"to": [11, 8.98, 8],
			"rotation": {"angle": 45, "axis": "y", "origin": [8, 9, 8]},
			"faces": {
				"north": {"uv": [0, 0, 0, 3], "texture": "#0"},
				"east": {"uv": [13, 16, 15.5, 16], "texture": "#0"},
				"south": {"uv": [0, 0, 0, 3], "texture": "#0"},
				"west": {"uv": [10.5, 16, 13, 16], "texture": "#0"},
				"up": {"uv": [13, 9, 15.5, 4], "rotation": 180, "texture": "#0"},
				"down": {"uv": [10.5, 4, 13, 9], "rotation": 180, "texture": "#0"}
			}
		},
		{
			"from": [3, 8.99, 5],
			"to": [8, 8.99, 11],
			"rotation": {"angle": 45, "axis": "y", "origin": [8, 9, 8]},
			"faces": {
				"north": {"uv": [13, 16, 15.5, 16], "texture": "#0"},
				"east": {"uv": [0, 0, 0, 3], "texture": "#0"},
				"south": {"uv": [10.5, 16, 13, 16], "texture": "#0"},
				"west": {"uv": [0, 0, 0, 3], "texture": "#0"},
				"up": {"uv": [13, 9, 15.5, 4], "rotation": 90, "texture": "#0"},
				"down": {"uv": [10.5, 4, 13, 9], "rotation": 270, "texture": "#0"}
			}
		},
		{
			"from": [5, 8.98, 8],
			"to": [11, 8.98, 13],
			"rotation": {"angle": 45, "axis": "y", "origin": [8, 9, 8]},
			"faces": {
				"north": {"uv": [0, 0, 0, 3], "texture": "#0"},
				"east": {"uv": [10.5, 16, 13, 16], "texture": "#0"},
				"south": {"uv": [0, 0, 0, 3], "texture": "#0"},
				"west": {"uv": [13, 16, 15.5, 16], "texture": "#0"},
				"up": {"uv": [13, 9, 15.5, 4], "texture": "#0"},
				"down": {"uv": [10.5, 4, 13, 9], "texture": "#0"}
			}
		},
		{
			"from": [8, 8.99, 5],
			"to": [13, 8.99, 11],
			"rotation": {"angle": 45, "axis": "y", "origin": [8, 9, 8]},
			"faces": {
				"north": {"uv": [10.5, 16, 13, 16], "texture": "#0"},
				"east": {"uv": [0, 0, 0, 3], "texture": "#0"},
				"south": {"uv": [13, 16, 15.5, 16], "texture": "#0"},
				"west": {"uv": [0, 0, 0, 3], "texture": "#0"},
				"up": {"uv": [13, 9, 15.5, 4], "rotation": 270, "texture": "#0"},
				"down": {"uv": [10.5, 4, 13, 9], "rotation": 90, "texture": "#0"}
			}
		},
		{
			"from": [5.5, 9, 5.5],
			"to": [10.5, 14, 5.5],
			"rotation": {"angle": 22.5, "axis": "x", "origin": [8, 9, 5.5]},
			"faces": {
				"north": {"uv": [10.5, 4, 13, 9], "texture": "#0"},
				"east": {"uv": [0, 0, 0, 3], "texture": "#0"},
				"south": {"uv": [13, 4, 15.5, 9], "texture": "#0"},
				"west": {"uv": [0, 0, 0, 3], "texture": "#0"},
				"up": {"uv": [0, 5, 0, 0], "rotation": 270, "texture": "#0"},
				"down": {"uv": [0, 0, 0, 5], "rotation": 90, "texture": "#0"}
			}
		},
		{
			"from": [5.5, 9, 10.5],
			"to": [10.5, 14, 10.5],
			"rotation": {"angle": -22.5, "axis": "x", "origin": [8, 9, 10.5]},
			"faces": {
				"north": {"uv": [13, 4, 15.5, 9], "texture": "#0"},
				"east": {"uv": [0, 0, 0, 3], "texture": "#0"},
				"south": {"uv": [10.5, 4, 13, 9], "texture": "#0"},
				"west": {"uv": [0, 0, 0, 3], "texture": "#0"},
				"up": {"uv": [0, 5, 0, 0], "rotation": 90, "texture": "#0"},
				"down": {"uv": [0, 0, 0, 5], "rotation": 270, "texture": "#0"}
			}
		}
	],
	"groups": [
		{
			"name": "cobblemon:block/vivichoke_seed_stage_2",
			"origin": [8, 8, 8],
			"color": 0,
			"children": [0, 1, 2, 3, 4, 5, 6, 7, 8, 9]
		}
	]
}