{
  "species": "cobblemon:chinchou",
  "order": 0,
  "variations": [
    {
      "aspects": [],
      "poser": "cobblemon:chinchou",
      "model": "cobblemon:chinchou.geo",
      "texture": "cobblemon:textures/pokemon/0170_chinchou/chinchou.png",
      "layers": [
        {
          "name": "emissive",
          "texture": "cobblemon:textures/pokemon/0170_chinchou/chinchou_emissive.png",
          "emissive": "true"
        }
      ]
    },
    {
      "aspects": [
        "shiny"
      ],
      "texture": "cobblemon:textures/pokemon/0170_chinchou/chinchou_shiny.png",
      "layers": [
        {
          "name": "emissive",
          "texture": "cobblemon:textures/pokemon/0170_chinchou/chinchou_shiny_emissive.png",
          "emissive": "true"
        }
      ]
    }
  ]
}